
2022-09-16 17:12:56.150271 --> ERROR_GET_TEACHERS
2022-09-16 17:13:54.790099 --> ERROR_GET_TEACHERS
2022-09-16 17:14:58.710306 --> ERROR_GET_TEACHERS
2022-09-16 17:15:57.077299 --> ERROR_GET_TEACHERS
2022-09-16 17:16:55.085052 --> ERROR_GET_TEACHERS
2022-09-16 17:17:57.628091 --> ERROR_GET_TEACHERS
2022-09-16 17:21:08.753209 --> ERROR_GET_TEACHERS
2022-09-16 17:22:11.827522 --> ERROR_GET_TEACHERS
2022-09-16 17:23:09.669414 --> ERROR_GET_TEACHERS
2022-09-16 17:24:06.856371 --> ERROR_GET_TEACHERS
2022-09-16 17:25:10.732429 --> ERROR_GET_TEACHERS
2022-09-16 17:26:19.113397 --> ERROR_GET_TEACHERS
2022-09-16 17:27:21.184654 --> ERROR_GET_TEACHERS
2022-09-16 17:28:29.001713 --> ERROR_GET_TEACHERS
2022-09-16 17:36:37.714183 --> ERROR_GET_TEACHERS
2022-09-16 17:37:40.347871 --> ERROR_GET_TEACHERS
2022-09-16 17:38:38.082845 --> ERROR_GET_TEACHERS
2022-09-16 17:39:36.399544 --> ERROR_GET_TEACHERS
2022-09-16 17:40:45.047079 --> ERROR_GET_TEACHERS
2022-09-16 17:41:48.183429 --> ERROR_GET_TEACHERS
2022-09-16 17:45:00.168948 --> ERROR_GET_TEACHERS
2022-09-17 16:34:58.168690 --> ERROR_GET_TEACHERS
2022-09-17 16:36:08.713792 --> ERROR_GET_TEACHERS
2022-09-19 14:02:55.705393 --> ERROR_GET_TEACHERS
2022-11-15 12:24:12.183028 --> ERROR_GET_CURSOS
2022-11-15 12:56:41.346615 --> ERROR_GET_TEACHERS